EESchema Schematic File Version 4
EELAYER 30 0
EELAYER END
$Descr A4 11693 8268
encoding utf-8
Sheet 1 1
Title ""
Date ""
Rev ""
Comp ""
Comment1 ""
Comment2 ""
Comment3 ""
Comment4 ""
$EndDescr
$Comp
L Connector:Conn_01x01_Female J1
U 1 1 60B7D55D
P 2750 2250
F 0 "J1" H 2778 2276 50  0000 L CNN
F 1 "Conn_01x01_Female" H 2778 2185 50  0000 L CNN
F 2 "" H 2750 2250 50  0001 C CNN
F 3 "~" H 2750 2250 50  0001 C CNN
	1    2750 2250
	-1   0    0    1   
$EndComp
$Comp
L Device:R R1
U 1 1 60B7E893
P 3700 1700
F 0 "R1" V 3493 1700 50  0000 C CNN
F 1 "262" V 3584 1700 50  0000 C CNN
F 2 "" V 3630 1700 50  0001 C CNN
F 3 "~" H 3700 1700 50  0001 C CNN
	1    3700 1700
	0    1    1    0   
$EndComp
$Comp
L Device:R R2
U 1 1 60B7F41D
P 4050 2050
F 0 "R2" H 4120 2096 50  0000 L CNN
F 1 "10000" H 4120 2005 50  0000 L CNN
F 2 "" V 3980 2050 50  0001 C CNN
F 3 "~" H 4050 2050 50  0001 C CNN
	1    4050 2050
	1    0    0    -1  
$EndComp
$Comp
L Device:R R3
U 1 1 60B7F888
P 5000 2050
F 0 "R3" H 5070 2096 50  0000 L CNN
F 1 "15600" H 5070 2005 50  0000 L CNN
F 2 "" V 4930 2050 50  0001 C CNN
F 3 "~" H 5000 2050 50  0001 C CNN
	1    5000 2050
	1    0    0    -1  
$EndComp
$Comp
L Device:R R4
U 1 1 60B801D5
P 5000 2700
F 0 "R4" H 5070 2746 50  0000 L CNN
F 1 "10000" H 5070 2655 50  0000 L CNN
F 2 "" V 4930 2700 50  0001 C CNN
F 3 "~" H 5000 2700 50  0001 C CNN
	1    5000 2700
	1    0    0    -1  
$EndComp
$Comp
L Device:Q_NPN_BCE Q1
U 1 1 60B8359D
P 6750 2400
F 0 "Q1" H 6941 2446 50  0000 L CNN
F 1 "Q_NPN_BCE" H 6941 2355 50  0000 L CNN
F 2 "" H 6950 2500 50  0001 C CNN
F 3 "~" H 6750 2400 50  0001 C CNN
	1    6750 2400
	1    0    0    -1  
$EndComp
$Comp
L Device:R R5
U 1 1 60B849EF
P 7650 2400
F 0 "R5" H 7720 2446 50  0000 L CNN
F 1 "100" H 7720 2355 50  0000 L CNN
F 2 "" V 7580 2400 50  0001 C CNN
F 3 "~" H 7650 2400 50  0001 C CNN
	1    7650 2400
	1    0    0    -1  
$EndComp
Wire Wire Line
	4050 1700 4050 1900
Wire Wire Line
	4050 2200 4050 2300
Wire Wire Line
	5000 1900 5000 1700
Wire Wire Line
	5000 1700 4050 1700
Connection ~ 4050 1700
Wire Wire Line
	5000 1700 5850 1700
Wire Wire Line
	5850 1700 5850 2100
Connection ~ 5000 1700
Wire Wire Line
	5000 2200 5000 2500
$Comp
L Amplifier_Operational:LM741 U1
U 1 1 60B8B011
P 5950 2400
F 0 "U1" H 6294 2446 50  0000 L CNN
F 1 "LM741" H 6294 2355 50  0000 L CNN
F 2 "" H 6000 2450 50  0001 C CNN
F 3 "http://www.ti.com/lit/ds/symlink/lm741.pdf" H 6100 2550 50  0001 C CNN
	1    5950 2400
	1    0    0    -1  
$EndComp
Wire Wire Line
	5650 2300 4050 2300
Connection ~ 4050 2300
Wire Wire Line
	4050 2300 4050 2550
Wire Wire Line
	5650 2500 5000 2500
Connection ~ 5000 2500
Wire Wire Line
	5000 2500 5000 2550
Wire Wire Line
	5850 2700 5850 2850
Connection ~ 5000 2850
Wire Wire Line
	5000 2850 5850 2850
Wire Wire Line
	6250 2400 6550 2400
Wire Wire Line
	5850 1700 6850 1700
Wire Wire Line
	6850 1700 6850 2200
Connection ~ 5850 1700
Wire Wire Line
	5850 2850 6850 2850
Wire Wire Line
	6850 2850 6850 2600
Connection ~ 5850 2850
Wire Wire Line
	6850 1700 7650 1700
Wire Wire Line
	7650 1700 7650 2250
Connection ~ 6850 1700
Wire Wire Line
	7650 2550 7650 2850
Wire Wire Line
	7650 2850 6850 2850
Connection ~ 6850 2850
Wire Wire Line
	7650 1700 8200 1700
Connection ~ 7650 1700
Wire Wire Line
	3550 1700 2950 1700
Wire Wire Line
	2950 1700 2950 2250
Wire Wire Line
	2950 2850 2950 2250
Wire Wire Line
	2950 2850 3500 2850
Connection ~ 2950 2250
$Comp
L power:GND #PWR01
U 1 1 60B90515
P 3500 2850
F 0 "#PWR01" H 3500 2600 50  0001 C CNN
F 1 "GND" H 3505 2677 50  0000 C CNN
F 2 "" H 3500 2850 50  0001 C CNN
F 3 "" H 3500 2850 50  0001 C CNN
	1    3500 2850
	1    0    0    -1  
$EndComp
Connection ~ 3500 2850
$Comp
L Connector:Conn_01x01_Male J2
U 1 1 60B913BA
P 8400 1700
F 0 "J2" H 8372 1632 50  0000 R CNN
F 1 "Conn_01x01_Male" H 8372 1723 50  0000 R CNN
F 2 "" H 8400 1700 50  0001 C CNN
F 3 "~" H 8400 1700 50  0001 C CNN
	1    8400 1700
	-1   0    0    1   
$EndComp
Wire Wire Line
	3850 1700 4050 1700
Wire Wire Line
	3500 2850 4050 2850
$Comp
L pspice:DIODE D1
U 1 1 60B93AED
P 4050 2700
F 0 "D1" V 4004 2828 50  0000 L CNN
F 1 "D" V 4095 2828 50  0000 L CNN
F 2 "" H 4050 2700 50  0001 C CNN
F 3 "~" H 4050 2700 50  0001 C CNN
F 4 "D" H 4050 2700 50  0001 C CNN "Spice_Primitive"
F 5 "D" H 4050 2700 50  0001 C CNN "Spice_Model"
F 6 "Y" H 4050 2700 50  0001 C CNN "Spice_Netlist_Enabled"
	1    4050 2700
	0    1    1    0   
$EndComp
Connection ~ 4050 2850
Wire Wire Line
	4050 2850 5000 2850
$EndSCHEMATC
