EESchema Schematic File Version 4
EELAYER 30 0
EELAYER END
$Descr A4 11693 8268
encoding utf-8
Sheet 1 1
Title ""
Date ""
Rev ""
Comp ""
Comment1 ""
Comment2 ""
Comment3 ""
Comment4 ""
$EndDescr
$Comp
L Amplifier_Operational:LMH6609MF U2
U 1 1 60B7BE14
P 4250 3000
F 0 "U2" H 4594 3046 50  0000 L CNN
F 1 "LMH6609MF" H 4594 2955 50  0000 L CNN
F 2 "Package_TO_SOT_SMD:SOT-23-5" H 4150 2800 50  0001 L CNN
F 3 "http://www.ti.com/lit/ds/symlink/lmh6609.pdf" H 4250 3200 50  0001 C CNN
	1    4250 3000
	1    0    0    -1  
$EndComp
$Comp
L Amplifier_Operational:LMH6609MF U1
U 1 1 60B7E025
P 4250 2150
F 0 "U1" H 4594 2196 50  0000 L CNN
F 1 "LMH6609MF" H 4594 2105 50  0000 L CNN
F 2 "Package_TO_SOT_SMD:SOT-23-5" H 4150 1950 50  0001 L CNN
F 3 "http://www.ti.com/lit/ds/symlink/lmh6609.pdf" H 4250 2350 50  0001 C CNN
	1    4250 2150
	1    0    0    -1  
$EndComp
$Comp
L Amplifier_Operational:LMH6609MF U3
U 1 1 60B7E82F
P 4250 3900
F 0 "U3" H 4594 3946 50  0000 L CNN
F 1 "LMH6609MF" H 4594 3855 50  0000 L CNN
F 2 "Package_TO_SOT_SMD:SOT-23-5" H 4150 3700 50  0001 L CNN
F 3 "http://www.ti.com/lit/ds/symlink/lmh6609.pdf" H 4250 4100 50  0001 C CNN
	1    4250 3900
	1    0    0    -1  
$EndComp
$Comp
L Device:R R1
U 1 1 60B7EA39
P 3800 1750
F 0 "R1" H 3870 1796 50  0000 L CNN
F 1 "3k" H 3870 1705 50  0000 L CNN
F 2 "Resistor_SMD:R_0201_0603Metric" V 3730 1750 50  0001 C CNN
F 3 "~" H 3800 1750 50  0001 C CNN
	1    3800 1750
	1    0    0    -1  
$EndComp
$Comp
L Device:R R2
U 1 1 60B808BA
P 3800 2500
F 0 "R2" H 3870 2546 50  0000 L CNN
F 1 "2k" H 3870 2455 50  0000 L CNN
F 2 "Resistor_SMD:R_0201_0603Metric" V 3730 2500 50  0001 C CNN
F 3 "~" H 3800 2500 50  0001 C CNN
	1    3800 2500
	1    0    0    -1  
$EndComp
$Comp
L Device:R R3
U 1 1 60B809E1
P 3800 3350
F 0 "R3" H 3870 3396 50  0000 L CNN
F 1 "2k" H 3870 3305 50  0000 L CNN
F 2 "Resistor_SMD:R_0201_0603Metric" V 3730 3350 50  0001 C CNN
F 3 "~" H 3800 3350 50  0001 C CNN
	1    3800 3350
	1    0    0    -1  
$EndComp
$Comp
L Device:R R4
U 1 1 60B8210E
P 3800 4300
F 0 "R4" H 3870 4346 50  0000 L CNN
F 1 "3k" H 3870 4255 50  0000 L CNN
F 2 "Resistor_SMD:R_0201_0603Metric" V 3730 4300 50  0001 C CNN
F 3 "~" H 3800 4300 50  0001 C CNN
	1    3800 4300
	1    0    0    -1  
$EndComp
$Comp
L Device:R R5
U 1 1 60B82F55
P 4950 2150
F 0 "R5" V 5157 2150 50  0000 C CNN
F 1 "1k" V 5066 2150 50  0000 C CNN
F 2 "Resistor_SMD:R_0201_0603Metric" V 4880 2150 50  0001 C CNN
F 3 "~" H 4950 2150 50  0001 C CNN
	1    4950 2150
	0    -1   -1   0   
$EndComp
$Comp
L Device:R R6
U 1 1 60B83147
P 4950 3000
F 0 "R6" V 5157 3000 50  0000 C CNN
F 1 "1k" V 5066 3000 50  0000 C CNN
F 2 "Resistor_SMD:R_0201_0603Metric" V 4880 3000 50  0001 C CNN
F 3 "~" H 4950 3000 50  0001 C CNN
	1    4950 3000
	0    -1   -1   0   
$EndComp
$Comp
L Device:R R7
U 1 1 60B8334F
P 4950 3900
F 0 "R7" V 5157 3900 50  0000 C CNN
F 1 "1k" V 5066 3900 50  0000 C CNN
F 2 "Resistor_SMD:R_0201_0603Metric" V 4880 3900 50  0001 C CNN
F 3 "~" H 4950 3900 50  0001 C CNN
	1    4950 3900
	0    -1   -1   0   
$EndComp
$Comp
L Device:LED D1
U 1 1 60B88EF4
P 5250 2150
F 0 "D1" H 5243 1895 50  0000 C CNN
F 1 "LED" H 5243 1986 50  0000 C CNN
F 2 "LED_THT:LED_BL-FL7680RGB" H 5250 2150 50  0001 C CNN
F 3 "~" H 5250 2150 50  0001 C CNN
	1    5250 2150
	-1   0    0    1   
$EndComp
$Comp
L Device:LED D2
U 1 1 60B8A13C
P 5250 3000
F 0 "D2" H 5243 2745 50  0000 C CNN
F 1 "LED" H 5243 2836 50  0000 C CNN
F 2 "LED_THT:LED_BL-FL7680RGB" H 5250 3000 50  0001 C CNN
F 3 "~" H 5250 3000 50  0001 C CNN
	1    5250 3000
	-1   0    0    1   
$EndComp
$Comp
L Device:LED D3
U 1 1 60B8A4A9
P 5250 3900
F 0 "D3" H 5243 3645 50  0000 C CNN
F 1 "LED" H 5243 3736 50  0000 C CNN
F 2 "LED_THT:LED_BL-FL7680RGB" H 5250 3900 50  0001 C CNN
F 3 "~" H 5250 3900 50  0001 C CNN
	1    5250 3900
	-1   0    0    1   
$EndComp
Wire Wire Line
	4550 2150 4800 2150
Wire Wire Line
	4550 3000 4800 3000
Wire Wire Line
	3950 3800 3100 3800
Wire Wire Line
	3100 2050 3950 2050
Wire Wire Line
	3950 2900 2650 2900
Wire Wire Line
	3950 3100 3800 3100
Wire Wire Line
	3800 3100 3800 3200
Connection ~ 3800 3100
Wire Wire Line
	3800 2350 3800 2250
Wire Wire Line
	3950 2250 3800 2250
Connection ~ 3800 2250
Wire Wire Line
	3800 2250 3800 1900
Wire Wire Line
	3950 4000 3800 4000
Connection ~ 3800 4000
Wire Wire Line
	3800 4000 3800 4150
$Comp
L power:GND #PWR0101
U 1 1 60B8C9F5
P 3800 4450
F 0 "#PWR0101" H 3800 4200 50  0001 C CNN
F 1 "GND" H 3805 4277 50  0000 C CNN
F 2 "" H 3800 4450 50  0001 C CNN
F 3 "" H 3800 4450 50  0001 C CNN
	1    3800 4450
	1    0    0    -1  
$EndComp
Connection ~ 5400 3000
Wire Wire Line
	5550 3000 5400 3000
$Comp
L power:GND #PWR0102
U 1 1 60B90E68
P 4150 3300
F 0 "#PWR0102" H 4150 3050 50  0001 C CNN
F 1 "GND" H 4155 3127 50  0000 C CNN
F 2 "" H 4150 3300 50  0001 C CNN
F 3 "" H 4150 3300 50  0001 C CNN
	1    4150 3300
	1    0    0    -1  
$EndComp
Wire Wire Line
	5400 2150 5400 3000
Wire Wire Line
	5400 3000 5400 3900
Wire Wire Line
	4550 3900 4800 3900
Wire Wire Line
	3100 2050 3100 3800
Wire Wire Line
	3800 2650 3800 3100
Wire Wire Line
	3800 3500 3800 4000
$Comp
L power:GND #PWR0103
U 1 1 60BA0DAF
P 4150 4200
F 0 "#PWR0103" H 4150 3950 50  0001 C CNN
F 1 "GND" H 4155 4027 50  0000 C CNN
F 2 "" H 4150 4200 50  0001 C CNN
F 3 "" H 4150 4200 50  0001 C CNN
	1    4150 4200
	1    0    0    -1  
$EndComp
$Comp
L power:GND #PWR0104
U 1 1 60BA1C44
P 4150 2450
F 0 "#PWR0104" H 4150 2200 50  0001 C CNN
F 1 "GND" H 4155 2277 50  0000 C CNN
F 2 "" H 4150 2450 50  0001 C CNN
F 3 "" H 4150 2450 50  0001 C CNN
	1    4150 2450
	1    0    0    -1  
$EndComp
$Comp
L power:GND #PWR0105
U 1 1 60BA2B64
P 5550 3000
F 0 "#PWR0105" H 5550 2750 50  0001 C CNN
F 1 "GND" V 5555 2872 50  0000 R CNN
F 2 "" H 5550 3000 50  0001 C CNN
F 3 "" H 5550 3000 50  0001 C CNN
	1    5550 3000
	0    -1   -1   0   
$EndComp
Wire Wire Line
	4150 2700 4600 2700
Wire Wire Line
	4600 2700 4600 3600
Wire Wire Line
	4600 2700 4600 1850
Connection ~ 4600 2700
Wire Wire Line
	4150 3600 4600 3600
Wire Wire Line
	4150 1850 4600 1850
Connection ~ 4600 1850
Wire Wire Line
	4600 1850 4600 1600
Wire Wire Line
	3800 1600 4200 1600
Wire Wire Line
	4200 1600 4200 1400
Connection ~ 4200 1600
Wire Wire Line
	4200 1600 4600 1600
$Comp
L Connector:Conn_01x01_Female J1
U 1 1 60BA8568
P 2450 2900
F 0 "J1" H 2342 2675 50  0000 C CNN
F 1 "Conn_01x01_Female" H 2342 2766 50  0000 C CNN
F 2 "Connector_PinSocket_1.00mm:PinSocket_1x02_P1.00mm_Vertical" H 2450 2900 50  0001 C CNN
F 3 "~" H 2450 2900 50  0001 C CNN
	1    2450 2900
	-1   0    0    1   
$EndComp
$Comp
L Connector:Conn_01x01_Female J2
U 1 1 60BA921F
P 4200 1200
F 0 "J2" V 4138 1112 50  0000 R CNN
F 1 "Conn_01x01_Female" V 4047 1112 50  0000 R CNN
F 2 "Connector_PinSocket_1.00mm:PinSocket_1x02_P1.00mm_Vertical" H 4200 1200 50  0001 C CNN
F 3 "~" H 4200 1200 50  0001 C CNN
	1    4200 1200
	0    -1   -1   0   
$EndComp
$EndSCHEMATC
