EESchema Schematic File Version 4
EELAYER 30 0
EELAYER END
$Descr A4 11693 8268
encoding utf-8
Sheet 1 1
Title ""
Date ""
Rev ""
Comp ""
Comment1 ""
Comment2 ""
Comment3 ""
Comment4 ""
$EndDescr
Wire Wire Line
	5750 2400 5750 2100
Wire Wire Line
	5750 1100 5050 1100
$Comp
L Device:C C?
U 1 1 60BA19B2
P 4900 1100
F 0 "C?" V 4648 1100 50  0000 C CNN
F 1 "0.1u" V 4739 1100 50  0000 C CNN
F 2 "" H 4938 950 50  0001 C CNN
F 3 "~" H 4900 1100 50  0001 C CNN
	1    4900 1100
	0    1    1    0   
$EndComp
Wire Wire Line
	4750 1100 3250 1100
Wire Wire Line
	3250 1100 3250 1150
$Comp
L power:GND #PWR?
U 1 1 60BA2697
P 3250 1150
F 0 "#PWR?" H 3250 900 50  0001 C CNN
F 1 "GND" H 3255 977 50  0000 C CNN
F 2 "" H 3250 1150 50  0001 C CNN
F 3 "" H 3250 1150 50  0001 C CNN
	1    3250 1150
	1    0    0    -1  
$EndComp
Wire Wire Line
	5550 2400 5550 1750
Wire Wire Line
	5550 1750 4350 1750
Wire Wire Line
	1200 1750 1200 2000
$Comp
L Device:C C?
U 1 1 60BA3007
P 6850 2700
F 0 "C?" V 6598 2700 50  0000 C CNN
F 1 "0.1u" V 6689 2700 50  0000 C CNN
F 2 "" H 6888 2550 50  0001 C CNN
F 3 "~" H 6850 2700 50  0001 C CNN
	1    6850 2700
	0    1    1    0   
$EndComp
Wire Wire Line
	7000 2700 7150 2700
$Comp
L Device:L L?
U 1 1 60BA377C
P 7900 2700
F 0 "L?" V 7719 2700 50  0000 C CNN
F 1 "L" V 7810 2700 50  0000 C CNN
F 2 "" H 7900 2700 50  0001 C CNN
F 3 "~" H 7900 2700 50  0001 C CNN
	1    7900 2700
	0    1    1    0   
$EndComp
$Comp
L Device:R R?
U 1 1 60BA3A85
P 8550 2700
F 0 "R?" V 8343 2700 50  0000 C CNN
F 1 "R" V 8434 2700 50  0000 C CNN
F 2 "" V 8480 2700 50  0001 C CNN
F 3 "~" H 8550 2700 50  0001 C CNN
	1    8550 2700
	0    1    1    0   
$EndComp
Wire Wire Line
	5850 2400 5850 1100
Wire Wire Line
	5850 1100 8950 1100
Wire Wire Line
	9050 1100 9050 2700
Connection ~ 9050 2700
Wire Wire Line
	9050 2700 9200 2700
Wire Wire Line
	9050 2700 9050 2750
$Comp
L power:GND #PWR?
U 1 1 60BA4716
P 9050 3050
F 0 "#PWR?" H 9050 2800 50  0001 C CNN
F 1 "GND" H 9055 2877 50  0000 C CNN
F 2 "" H 9050 3050 50  0001 C CNN
F 3 "" H 9050 3050 50  0001 C CNN
	1    9050 3050
	1    0    0    -1  
$EndComp
$Comp
L Device:C C?
U 1 1 60BA4A62
P 9050 2900
F 0 "C?" H 9165 2946 50  0000 L CNN
F 1 "1m" H 9165 2855 50  0000 L CNN
F 2 "" H 9088 2750 50  0001 C CNN
F 3 "~" H 9050 2900 50  0001 C CNN
	1    9050 2900
	1    0    0    -1  
$EndComp
Wire Wire Line
	7150 2800 7150 2700
Connection ~ 7150 2700
Wire Wire Line
	6350 3500 8150 3500
Wire Wire Line
	8150 3500 8150 3400
Wire Wire Line
	6350 3600 8750 3600
Wire Wire Line
	8150 3400 8300 3400
Connection ~ 8150 3400
Connection ~ 8750 3400
Wire Wire Line
	8750 3400 8750 3600
$Comp
L Device:C C?
U 1 1 60BA6247
P 8450 3400
F 0 "C?" V 8198 3400 50  0000 C CNN
F 1 "1n" V 8289 3400 50  0000 C CNN
F 2 "" H 8488 3250 50  0001 C CNN
F 3 "~" H 8450 3400 50  0001 C CNN
	1    8450 3400
	0    1    1    0   
$EndComp
Wire Wire Line
	8600 3400 8750 3400
$Comp
L Device:R R?
U 1 1 60BA6ECE
P 8800 3750
F 0 "R?" H 8870 3796 50  0000 L CNN
F 1 "178k" H 8870 3705 50  0000 L CNN
F 2 "" V 8730 3750 50  0001 C CNN
F 3 "~" H 8800 3750 50  0001 C CNN
	1    8800 3750
	1    0    0    -1  
$EndComp
Wire Wire Line
	8800 3900 8800 4050
Wire Wire Line
	6350 3700 8050 3700
Wire Wire Line
	8050 3700 8050 4050
Wire Wire Line
	8050 4050 8800 4050
Connection ~ 8800 4050
Wire Wire Line
	8800 4050 8800 4200
Wire Wire Line
	6350 3900 7000 3900
Wire Wire Line
	7000 3900 7000 4300
Wire Wire Line
	6350 4100 6750 4100
Wire Wire Line
	6750 4100 6750 4550
$Comp
L power:GND #PWR?
U 1 1 60BAB731
P 6750 4550
F 0 "#PWR?" H 6750 4300 50  0001 C CNN
F 1 "GND" H 6755 4377 50  0000 C CNN
F 2 "" H 6750 4550 50  0001 C CNN
F 3 "" H 6750 4550 50  0001 C CNN
	1    6750 4550
	1    0    0    -1  
$EndComp
$Comp
L Device:R R?
U 1 1 60BABA0C
P 7000 4450
F 0 "R?" H 7070 4496 50  0000 L CNN
F 1 "75k" H 7070 4405 50  0000 L CNN
F 2 "" V 6930 4450 50  0001 C CNN
F 3 "~" H 7000 4450 50  0001 C CNN
	1    7000 4450
	1    0    0    -1  
$EndComp
$Comp
L power:GND #PWR?
U 1 1 60BABF67
P 7000 4600
F 0 "#PWR?" H 7000 4350 50  0001 C CNN
F 1 "GND" H 7005 4427 50  0000 C CNN
F 2 "" H 7000 4600 50  0001 C CNN
F 3 "" H 7000 4600 50  0001 C CNN
	1    7000 4600
	1    0    0    -1  
$EndComp
Wire Wire Line
	4950 3100 4350 3100
Wire Wire Line
	4350 3100 4350 1750
Connection ~ 4350 1750
Wire Wire Line
	4350 1750 3100 1750
Wire Wire Line
	3800 2100 3800 3200
Wire Wire Line
	3800 3900 4950 3900
Connection ~ 5750 2100
Wire Wire Line
	5750 2100 5750 1100
Wire Wire Line
	4950 3400 4650 3400
Wire Wire Line
	4250 3400 4250 3500
$Comp
L Device:R R?
U 1 1 60BAE7B0
P 4500 3400
F 0 "R?" V 4293 3400 50  0000 C CNN
F 1 "30.1k" V 4384 3400 50  0000 C CNN
F 2 "" V 4430 3400 50  0001 C CNN
F 3 "~" H 4500 3400 50  0001 C CNN
	1    4500 3400
	0    1    1    0   
$EndComp
Wire Wire Line
	4350 3400 4250 3400
$Comp
L power:GND #PWR?
U 1 1 60BAEC74
P 4250 3500
F 0 "#PWR?" H 4250 3250 50  0001 C CNN
F 1 "GND" H 4255 3327 50  0000 C CNN
F 2 "" H 4250 3500 50  0001 C CNN
F 3 "" H 4250 3500 50  0001 C CNN
	1    4250 3500
	1    0    0    -1  
$EndComp
Wire Wire Line
	4950 3500 4650 3500
Wire Wire Line
	4650 3500 4650 3600
$Comp
L power:GND #PWR?
U 1 1 60BB4812
P 4650 3600
F 0 "#PWR?" H 4650 3350 50  0001 C CNN
F 1 "GND" H 4655 3427 50  0000 C CNN
F 2 "" H 4650 3600 50  0001 C CNN
F 3 "" H 4650 3600 50  0001 C CNN
	1    4650 3600
	1    0    0    -1  
$EndComp
Wire Wire Line
	4950 3700 4850 3700
Wire Wire Line
	4850 3700 4850 3750
$Comp
L power:GND #PWR?
U 1 1 60BB5BDB
P 4850 3750
F 0 "#PWR?" H 4850 3500 50  0001 C CNN
F 1 "GND" H 4855 3577 50  0000 C CNN
F 2 "" H 4850 3750 50  0001 C CNN
F 3 "" H 4850 3750 50  0001 C CNN
	1    4850 3750
	1    0    0    -1  
$EndComp
Wire Wire Line
	4950 2900 4800 2900
Wire Wire Line
	4800 2900 4800 2100
Wire Wire Line
	3800 2100 4800 2100
Connection ~ 4800 2100
Wire Wire Line
	4800 2100 5750 2100
Wire Wire Line
	4950 3200 4300 3200
Connection ~ 3800 3200
Wire Wire Line
	3800 3200 3800 3900
$Comp
L Device:R R?
U 1 1 60BB837A
P 4150 3200
F 0 "R?" V 3943 3200 50  0000 C CNN
F 1 "511k" V 4034 3200 50  0000 C CNN
F 2 "" V 4080 3200 50  0001 C CNN
F 3 "~" H 4150 3200 50  0001 C CNN
	1    4150 3200
	0    1    1    0   
$EndComp
Wire Wire Line
	4000 3200 3800 3200
Wire Wire Line
	4950 3300 2200 3300
Wire Wire Line
	2200 3300 2200 3000
Connection ~ 2200 1750
Wire Wire Line
	2200 1750 1200 1750
Wire Wire Line
	2200 3300 2200 3650
Connection ~ 2200 3300
$Comp
L power:GND #PWR?
U 1 1 60BBB5FB
P 2200 4150
F 0 "#PWR?" H 2200 3900 50  0001 C CNN
F 1 "GND" H 2205 3977 50  0000 C CNN
F 2 "" H 2200 4150 50  0001 C CNN
F 3 "" H 2200 4150 50  0001 C CNN
	1    2200 4150
	1    0    0    -1  
$EndComp
$Comp
L Device:R R?
U 1 1 60BBB942
P 2200 3800
F 0 "R?" H 2270 3846 50  0000 L CNN
F 1 "18.7k" H 2270 3755 50  0000 L CNN
F 2 "" V 2130 3800 50  0001 C CNN
F 3 "~" H 2200 3800 50  0001 C CNN
	1    2200 3800
	1    0    0    -1  
$EndComp
Wire Wire Line
	2200 3950 2200 4150
$Comp
L Device:R R?
U 1 1 60BBBCB6
P 2200 2850
F 0 "R?" H 2270 2896 50  0000 L CNN
F 1 "1Meg" H 2270 2805 50  0000 L CNN
F 2 "" V 2130 2850 50  0001 C CNN
F 3 "~" H 2200 2850 50  0001 C CNN
	1    2200 2850
	1    0    0    -1  
$EndComp
Wire Wire Line
	2200 2700 2200 1750
Wire Wire Line
	4950 4100 4000 4100
Wire Wire Line
	4000 4100 4000 4300
Wire Wire Line
	4950 4200 4500 4200
Wire Wire Line
	4500 4200 4500 4300
$Comp
L Device:C C?
U 1 1 60BC1091
P 4500 4450
F 0 "C?" H 4615 4496 50  0000 L CNN
F 1 "0.01u" H 4615 4405 50  0000 L CNN
F 2 "" H 4538 4300 50  0001 C CNN
F 3 "~" H 4500 4450 50  0001 C CNN
	1    4500 4450
	1    0    0    -1  
$EndComp
Wire Wire Line
	4500 4600 4500 4700
$Comp
L Device:C C?
U 1 1 60BC1431
P 4000 4450
F 0 "C?" H 4115 4496 50  0000 L CNN
F 1 "0.01u" H 4115 4405 50  0000 L CNN
F 2 "" H 4038 4300 50  0001 C CNN
F 3 "~" H 4000 4450 50  0001 C CNN
	1    4000 4450
	1    0    0    -1  
$EndComp
Wire Wire Line
	4000 4600 4000 4700
$Comp
L power:GND #PWR?
U 1 1 60BC17E3
P 4000 4700
F 0 "#PWR?" H 4000 4450 50  0001 C CNN
F 1 "GND" H 4005 4527 50  0000 C CNN
F 2 "" H 4000 4700 50  0001 C CNN
F 3 "" H 4000 4700 50  0001 C CNN
	1    4000 4700
	1    0    0    -1  
$EndComp
$Comp
L power:GND #PWR?
U 1 1 60BC1FAD
P 4500 4700
F 0 "#PWR?" H 4500 4450 50  0001 C CNN
F 1 "GND" H 4505 4527 50  0000 C CNN
F 2 "" H 4500 4700 50  0001 C CNN
F 3 "" H 4500 4700 50  0001 C CNN
	1    4500 4700
	1    0    0    -1  
$EndComp
$Comp
L pspice:MNMOS M?
U 1 1 60BC2DBA
P 3200 5100
F 0 "M?" H 3487 5146 50  0000 L CNN
F 1 "MNMOS" H 3487 5055 50  0000 L CNN
F 2 "" H 3175 5100 50  0001 C CNN
F 3 "~" H 3175 5100 50  0001 C CNN
	1    3200 5100
	-1   0    0    -1  
$EndComp
Wire Wire Line
	3000 5300 3050 5300
Wire Wire Line
	3050 5300 3050 5550
Connection ~ 3050 5300
Wire Wire Line
	3050 5300 3100 5300
$Comp
L power:GND #PWR?
U 1 1 60BCB174
P 3050 6350
F 0 "#PWR?" H 3050 6100 50  0001 C CNN
F 1 "GND" H 3055 6177 50  0000 C CNN
F 2 "" H 3050 6350 50  0001 C CNN
F 3 "" H 3050 6350 50  0001 C CNN
	1    3050 6350
	1    0    0    -1  
$EndComp
$Comp
L Device:C C?
U 1 1 60BCB541
P 3050 5850
F 0 "C?" H 3165 5896 50  0000 L CNN
F 1 "4.7u" H 3165 5805 50  0000 L CNN
F 2 "" H 3088 5700 50  0001 C CNN
F 3 "~" H 3050 5850 50  0001 C CNN
	1    3050 5850
	1    0    0    -1  
$EndComp
Wire Wire Line
	3050 6000 3050 6150
Wire Wire Line
	3400 5100 5550 5100
Wire Wire Line
	5550 5100 5550 4400
Wire Wire Line
	5650 4400 5650 5550
Wire Wire Line
	5650 5550 3050 5550
Connection ~ 3050 5550
Wire Wire Line
	3050 5550 3050 5700
Wire Wire Line
	5750 4400 5750 6150
Wire Wire Line
	5750 6150 3050 6150
Connection ~ 3050 6150
Wire Wire Line
	3050 6150 3050 6350
Wire Wire Line
	3100 4900 3100 1750
Connection ~ 3100 1750
Wire Wire Line
	3100 1750 2200 1750
$Comp
L pspice:MNMOS M?
U 1 1 60BD741E
P 7450 2900
F 0 "M?" H 7738 2946 50  0000 L CNN
F 1 "MNMOS" H 7738 2855 50  0000 L CNN
F 2 "" H 7425 2900 50  0001 C CNN
F 3 "~" H 7425 2900 50  0001 C CNN
	1    7450 2900
	1    0    0    -1  
$EndComp
$Comp
L Regulator_Controller:LTC3895-1 U?
U 1 1 60BEBE54
P 5650 3400
F 0 "U?" H 5650 4581 50  0000 C CNN
F 1 "LTC3895-1" H 5650 4490 50  0000 C CNN
F 2 "Package_DFN_QFN:QFN-32-1EP_5x5mm_P0.5mm_EP3.45x3.45mm" H 6000 2450 50  0001 L CNN
F 3 "https://www.analog.com/media/en/technical-documentation/data-sheets/3890fc.pdf" H 5650 4550 50  0001 C CNN
	1    5650 3400
	1    0    0    -1  
$EndComp
Wire Wire Line
	8050 2700 8150 2700
Wire Wire Line
	8700 2700 8750 2700
$Comp
L power:GND #PWR?
U 1 1 60BA894B
P 8800 5000
F 0 "#PWR?" H 8800 4750 50  0001 C CNN
F 1 "GND" H 8805 4827 50  0000 C CNN
F 2 "" H 8800 5000 50  0001 C CNN
F 3 "" H 8800 5000 50  0001 C CNN
	1    8800 5000
	1    0    0    -1  
$EndComp
Wire Wire Line
	8800 5000 8800 4500
$Comp
L Device:R R?
U 1 1 60BA7DE3
P 8800 4350
F 0 "R?" H 8870 4396 50  0000 L CNN
F 1 "36.5k" H 8870 4305 50  0000 L CNN
F 2 "" V 8730 4350 50  0001 C CNN
F 3 "~" H 8800 4350 50  0001 C CNN
	1    8800 4350
	1    0    0    -1  
$EndComp
Wire Wire Line
	8800 2700 8800 3600
Connection ~ 8800 2700
Wire Wire Line
	8800 2700 9050 2700
Wire Wire Line
	8750 2700 8750 3400
Connection ~ 8750 2700
Wire Wire Line
	8750 2700 8800 2700
Wire Wire Line
	8150 2700 8150 3400
Connection ~ 8150 2700
Wire Wire Line
	8150 2700 8400 2700
Wire Wire Line
	6350 2800 7150 2800
Wire Wire Line
	6350 2700 6700 2700
Wire Wire Line
	7250 2900 6350 2900
Wire Wire Line
	7550 3100 7600 3100
Wire Wire Line
	7600 3100 7600 3250
Connection ~ 7600 3100
Wire Wire Line
	7600 3100 7650 3100
$Comp
L power:GND #PWR?
U 1 1 60C27281
P 7600 3250
F 0 "#PWR?" H 7600 3000 50  0001 C CNN
F 1 "GND" H 7605 3077 50  0000 C CNN
F 2 "" H 7600 3250 50  0001 C CNN
F 3 "" H 7600 3250 50  0001 C CNN
	1    7600 3250
	1    0    0    -1  
$EndComp
Connection ~ 7700 2700
Wire Wire Line
	7700 2700 7750 2700
$Comp
L pspice:MNMOS M?
U 1 1 60C2A07B
P 7550 2050
F 0 "M?" H 7838 2096 50  0000 L CNN
F 1 "MNMOS" H 7838 2005 50  0000 L CNN
F 2 "" H 7525 2050 50  0001 C CNN
F 3 "~" H 7525 2050 50  0001 C CNN
	1    7550 2050
	1    0    0    -1  
$EndComp
Wire Wire Line
	7650 2250 7700 2250
Connection ~ 7700 2250
Wire Wire Line
	7700 2250 7750 2250
Wire Wire Line
	7350 2050 7350 2500
Wire Wire Line
	7350 2500 6600 2500
Wire Wire Line
	6600 2600 6350 2600
Wire Wire Line
	6600 2500 6600 2600
Wire Wire Line
	7700 2700 7700 2250
Wire Wire Line
	7150 2700 7550 2700
Connection ~ 7550 2700
Wire Wire Line
	7550 2700 7700 2700
Wire Wire Line
	7650 1850 7650 1750
Wire Wire Line
	7650 1750 5550 1750
Connection ~ 5550 1750
$EndSCHEMATC
